{
  "questions": [
    "Athletes",
    "Authors",
    "Awards/Ceremonies",
    "Bad Habits",
    "Bodies of Water",
    "Boys Name",
    "Breakfast Foods",
    "Car Parts",
    "Cars",
    "Celebrities",
    "Chores",
    "Cities",
    "Clothing",
    "Colours",
    "Cooking Utensils",
    "Desserts",
    "Excuses for Being Late",
    "Farm Animals",
    "Four Letter Words",
    "Fruits",
    "Furniture",
    "Halloween Costumes",
    "Healthy Foods",
    "Ice Cream Flavours",
    "Insects",
    "Items in a Catalog",
    "Items in a Refrigerator",
    "Leisure Activities",
    "Musical Instruments",
    "Parks",
    "Party Things",
    "Product Names",
    "Reasons to skip School/Work",
    "Restaurants",
    "Sandwiches",
    "School Subjects",
    "School Supplies",
    "Spices/Herbs",
    "Sports Teams",
    "Street Names",
    "TV Shows",
    "Television Stars",
    "Things at the Beach",
    "Things found at a Salad Bar",
    "Things found at a Zoo",
    "Things found in a Class Room",
    "Things found in the Ocean",
    "Things found on the Map",
    "Things in a Hotel",
    "Things in a park",
    "Things on a hiking trip",
    "Things that Jump/Bounce",
    "Things that are Sticky",
    "Things that are cold",
    "Things that are round",
    "Things that fly",
    "Things with Motors",
    "Title that people have",
    "Tools",
    "Toys",
    "Weapons",
    "Words associated with exercise",
    "Words ending in \"ly\"",
    "World Leaders / Politicians"
  ]
}
